1_Verilog/29.Q17/Two_Complement_Xor/Two_Complement_Xor.sim/sim_1/behav/xsim/simulate.log
Time resolution is 1 ps
a = 0000 b = 0000, b2 = 0000 b3 = 0000
a = 0001 b = 1111, b2 = 1111 b3 = 1111
a = 0010 b = 1110, b2 = 1110 b3 = 1110
a = 0011 b = 1101, b2 = 0001 b3 = 1101
a = 0100 b = 1100, b2 = 1100 b3 = 1100
a = 0101 b = 1011, b2 = 0011 b3 = 1011
a = 0110 b = 1010, b2 = 0010 b3 = 1010
a = 0111 b = 1001, b2 = 1101 b3 = 1001
a = 1000 b = 1000, b2 = 1000 b3 = 1000
a = 1001 b = 0111, b2 = 0111 b3 = 0111
a = 1010 b = 0110, b2 = 0110 b3 = 0110
a = 1011 b = 0101, b2 = 1001 b3 = 0101
a = 1100 b = 0100, b2 = 0100 b3 = 0100
a = 1101 b = 0011, b2 = 1011 b3 = 0011
a = 1110 b = 0010, b2 = 1010 b3 = 0010
a = 1111 b = 0001, b2 = 0101 b3 = 0001
$finish called at time : 16 ns : File "D:/5_V_P/Two_Complement_Xor/Two_Complement_Xor.srcs/sim_1/new/two_tb.v" Line 39
